catch data
…
general trendcatch sites pool together

catch.clean.group

## # A tibble: 144 x 3
##    Location date       catch
##    <chr>    <date>     <dbl>
##  1 Kibiti   2016-06-15 137. 
##  2 Kilwa    2016-06-15  44.9
##  3 Mafia    2016-06-15  12.2
##  4 Kibiti   2016-07-15  36.0
##  5 Kilwa    2016-07-15 206. 
##  6 Mafia    2016-07-15  72.0
##  7 Kibiti   2016-08-15 367. 
##  8 Kilwa    2016-08-15 195. 
##  9 Mafia    2016-08-15  23.6
## 10 Kibiti   2016-09-15  58.3
## # ... with 134 more rows
…
catch.districts  %>% 
  filter(english.name != "Others", catch > 300)  %>% 
  group_by(english.name, zone, year)  %>% 
  count() %>% ungroup() %>% 
  pivot_wider(names_from = zone, values_from = n)%>% 
  mutate(OTHER = replace(OTHER, !is.na(OTHER),"present"),
         OTHER = replace(OTHER, is.na(OTHER),"absent"),
         RUMAKI = replace(RUMAKI, !is.na(RUMAKI),"present"),
         RUMAKI = replace(RUMAKI, is.na(RUMAKI),"absent")) %>%
  pivot_longer(names_to = "zone", values_to = "present.absent", cols = 3:4, ) %>% filter(present.absent == "present") %>% group_by(zone, english.name,year) %>% tally()

## # A tibble: 41 x 4
## # Groups:   zone, english.name [22]
##    zone  english.name         year     n
##    <chr> <fct>               <int> <int>
##  1 OTHER Netuma thalassina    2015     1
##  2 OTHER Netuma thalassina    2016     1
##  3 OTHER Sardinella neglecta  2015     1
##  4 OTHER Sardinella neglecta  2016     1
##  5 OTHER Lethrinus harak      2015     1
##  6 OTHER Lethrinus harak      2016     1
##  7 OTHER Octopus chromatus    2015     1
##  8 OTHER Octopus chromatus    2016     1
##  9 OTHER Panulirus ornatus    2015     1
## 10 OTHER Panulirus ornatus    2016     1
## # ... with 31 more rows
…
catch.districts %>% group_by(english.name, zone) %>% tally()%>% ungroup() %>% 
  pivot_wider(names_from = zone, values_from = n)

## Warning: Factor `english.name` contains implicit NA, consider using
## `forcats::fct_explicit_na`

## # A tibble: 34 x 3
##    english.name             OTHER RUMAKI
##    <fct>                    <int>  <int>
##  1 Naso hexacanthus            21     10
##  2 Netuma thalassina           21     10
##  3 Caesio xanthonota           21     10
##  4 carenx tille                21     10
##  5 Chanidae                    21     10
##  6 Chirocentrus nudus          20      9
##  7 Sardinella neglecta         21     10
##  8 Gerres oblongus             21     10
##  9 Pomadasys multimaculatum    21     10
## 10 Hemiramphus far             21     10
## # ... with 24 more rows
catch.districts %>% group_by(english.name,zone) %>% count() %>% arrange(desc(n))

## Warning: Factor `english.name` contains implicit NA, consider using
## `forcats::fct_explicit_na`

## Warning: Factor `english.name` contains implicit NA, consider using
## `forcats::fct_explicit_na`

## Warning: Factor `english.name` contains implicit NA, consider using
## `forcats::fct_explicit_na`

## Warning: Factor `english.name` contains implicit NA, consider using
## `forcats::fct_explicit_na`

## # A tibble: 67 x 3
## # Groups:   english.name, zone [67]
##    english.name             zone       n
##    <fct>                    <fct>  <int>
##  1 <NA>                     OTHER    322
##  2 <NA>                     RUMAKI   138
##  3 Naso hexacanthus         OTHER     21
##  4 Netuma thalassina        OTHER     21
##  5 Caesio xanthonota        OTHER     21
##  6 carenx tille             OTHER     21
##  7 Chanidae                 OTHER     21
##  8 Sardinella neglecta      OTHER     21
##  9 Gerres oblongus          OTHER     21
## 10 Pomadasys multimaculatum OTHER     21
## # ... with 57 more rows
